{
   "data": [
      {
         "id": "7918522"
      },
      {
         "id": "149000307"
      },
      {
         "id": "151101314"
      }
   ],
   "paging": {
      "next": "https://graph.facebook.com/v2.3/1255689239/friends?limit=25&offset=25&__after_id=enc_AdCT6WOXITvyG4Eyez7xvw0SjoDHMKspZBotK4rlsiZCmufw419aT8Ff4lWofDrfqHsPkZD"
   }, 
   "summary": {
      "total_count": 477
   }
}